<!-- Generated by IcoMoon.io -->
<svg version="1.1" xmlns="http://www.w3.org/2000/svg" width="32" height="32" viewBox="0 0 32 32">
<title>mode3</title>
<path d="M5.653 29.37c-0.106 0-0.211-0.037-0.297-0.112-0.164-0.143-1.603-1.459-1.617-3.34-0.007-1.189 0.533-2.276 1.606-3.233 0.014-0.012 0.029-0.024 0.045-0.035 0.852-0.77 1.282-1.62 1.276-2.529-0.010-1.523-1.256-2.622-1.309-2.668-0.188-0.163-0.208-0.447-0.045-0.635s0.448-0.206 0.634-0.045c0.165 0.143 1.606 1.449 1.619 3.342 0.007 1.189-0.533 2.276-1.606 3.233-0.014 0.012-0.029 0.024-0.045 0.035-0.853 0.77-1.281 1.62-1.275 2.529 0.010 1.514 1.256 2.623 1.309 2.67 0.187 0.163 0.206 0.447 0.042 0.634-0.089 0.102-0.214 0.154-0.338 0.154zM5.662 23.012v0z"></path>
<path d="M10.012 29.37c-0.106 0-0.211-0.037-0.296-0.112-0.164-0.143-1.603-1.459-1.617-3.34-0.007-1.189 0.533-2.276 1.606-3.233 0.014-0.012 0.029-0.024 0.045-0.035 0.852-0.77 1.282-1.62 1.276-2.529-0.010-1.523-1.256-2.622-1.309-2.668-0.188-0.163-0.208-0.447-0.045-0.635 0.164-0.189 0.448-0.206 0.634-0.045 0.165 0.143 1.606 1.449 1.619 3.342 0.007 1.189-0.533 2.276-1.606 3.233-0.014 0.012-0.029 0.024-0.045 0.035-0.853 0.77-1.281 1.62-1.275 2.529 0.010 1.514 1.256 2.623 1.309 2.67 0.187 0.163 0.206 0.447 0.042 0.634-0.089 0.102-0.214 0.154-0.338 0.154zM10.021 23.012v0z"></path>
<path d="M14.634 23.384c0.016-0.011 0.031-0.023 0.045-0.035 0.233-0.208 0.437-0.423 0.619-0.643-0.264-0.154-0.535-0.296-0.795-0.456-0.12 0.135-0.249 0.27-0.394 0.401-0.016 0.011-0.031 0.023-0.045 0.035-1.073 0.956-1.613 2.044-1.606 3.233 0.013 1.893 1.454 3.199 1.619 3.342 0.085 0.074 0.19 0.111 0.294 0.111 0.126 0 0.251-0.052 0.34-0.155 0.163-0.188 0.143-0.472-0.045-0.635-0.053-0.046-1.298-1.145-1.308-2.668-0.006-0.909 0.423-1.759 1.276-2.529z"></path>
<path d="M14.379 23.012v0z"></path>
<path d="M12.889 6.456c-1.18 0-2.259-0.54-3.208-1.606-0.012-0.014-0.023-0.028-0.034-0.043-0.771-0.854-1.615-1.264-2.53-1.277-1.515 0.010-2.623 1.256-2.67 1.309-0.164 0.187-0.448 0.205-0.634 0.042s-0.206-0.448-0.042-0.635c0.143-0.164 1.459-1.603 3.34-1.617 1.178-0.013 2.277 0.533 3.233 1.606 0.012 0.014 0.024 0.028 0.035 0.043 0.765 0.848 1.61 1.278 2.512 1.278 0.007 0 0.012 0 0.019-0.001 1.523-0.010 2.622-1.255 2.668-1.308 0.164-0.189 0.448-0.207 0.635-0.045s0.208 0.447 0.045 0.635c-0.143 0.164-1.449 1.605-3.342 1.618h-0.025z"></path>
<path d="M12.914 10.852c0.211-0.001 0.413-0.023 0.608-0.056 0.132-0.303 0.286-0.593 0.52-0.843 0.519-0.556 1.298-0.658 1.838-1.191 0.108-0.107 0.23-0.145 0.347-0.141-0.006-0.006-0.008-0.014-0.015-0.020-0.186-0.163-0.47-0.146-0.634 0.042-0.047 0.053-1.156 1.3-2.67 1.309-0.006 0-0.012 0-0.019 0-0.903 0-1.748-0.429-2.512-1.277-0.011-0.015-0.022-0.029-0.034-0.043-0.949-1.065-2.028-1.606-3.206-1.606h-0.027c-1.893 0.013-3.199 1.454-3.341 1.618-0.163 0.188-0.143 0.472 0.045 0.635 0.186 0.162 0.471 0.143 0.635-0.045 0.046-0.053 1.145-1.298 2.668-1.308 0.007-0.001 0.013-0.001 0.020-0.001 0.902 0 1.746 0.43 2.51 1.278 0.011 0.015 0.022 0.029 0.034 0.043 0.949 1.065 2.028 1.606 3.208 1.606h0.025z"></path>
<path d="M11.838 14.141c-0.512-0.205-1-0.56-1.459-1.068-0.011-0.016-0.023-0.031-0.035-0.045-0.956-1.073-2.055-1.609-3.233-1.606-1.882 0.013-3.197 1.452-3.34 1.616-0.164 0.187-0.145 0.471 0.042 0.635s0.471 0.145 0.635-0.042c0.047-0.053 1.155-1.299 2.669-1.309 0.007-0.001 0.012-0.001 0.019-0.001 0.902 0 1.746 0.429 2.51 1.276 0.012 0.016 0.023 0.031 0.036 0.045 0.623 0.699 1.302 1.167 2.028 1.41 0.019-0.309 0.060-0.613 0.129-0.912z"></path>
<path d="M22.643 18.251c0 1.75-1.397 2.897-3.037 2.897-1.102 0-1.72-0.279-2.228-0.787-0.389-0.39-0.654-0.949-0.654-1.537 0-0.176 0.029-0.316 0.117-0.404 0.067-0.067 0.147-0.103 0.258-0.103 0.095 0 0.176 0.029 0.235 0.088 0.073 0.073 0.118 0.161 0.147 0.382 0.162 1.199 0.934 1.684 2.125 1.684 1.25 0 2.272-0.86 2.272-2.221 0-1.405-0.735-2.22-2.206-2.22-0.176 0-0.265-0.022-0.338-0.073-0.088-0.067-0.132-0.155-0.132-0.265s0.044-0.199 0.132-0.265c0.074-0.051 0.162-0.073 0.338-0.073 1.375 0 2.015-0.831 2.015-2.111 0-1.294-0.86-2.066-2.029-2.066-1.059 0-1.742 0.448-1.956 1.514-0.052 0.257-0.096 0.346-0.169 0.419-0.059 0.059-0.147 0.096-0.25 0.096-0.11 0-0.198-0.045-0.265-0.126-0.059-0.073-0.088-0.162-0.088-0.309 0-0.537 0.316-1.147 0.713-1.544 0.507-0.508 1.139-0.728 2.015-0.728 1.61 0 2.794 1.044 2.794 2.742 0 1.103-0.456 1.963-1.515 2.404 1.059 0.309 1.706 1.154 1.706 2.602z"></path>
<path d="M19.684 24.753c-4.774 0-8.658-3.884-8.658-8.658s3.883-8.658 8.658-8.658c4.774 0 8.658 3.884 8.658 8.658s-3.884 8.658-8.658 8.658zM19.684 8.337c-4.278 0-7.758 3.48-7.758 7.758s3.48 7.758 7.758 7.758c4.278 0 7.758-3.48 7.758-7.758s-3.48-7.758-7.758-7.758z"></path>
</svg>
