<!-- Generated by IcoMoon.io -->
<svg version="1.1" xmlns="http://www.w3.org/2000/svg" width="32" height="32" viewBox="0 0 32 32">
<title>volume20</title>
<path d="M22.603 20.113c-0.063 0-0.128-0.015-0.19-0.045-0.213-0.105-0.301-0.363-0.196-0.577l1.583-3.209c0.072-0.146 0.22-0.239 0.383-0.24 0.155-0.004 0.312 0.089 0.386 0.234l1.643 3.21c0.108 0.211 0.024 0.471-0.187 0.579s-0.472 0.024-0.579-0.187l-1.253-2.446-1.203 2.441c-0.075 0.153-0.228 0.241-0.387 0.241z"></path>
<path d="M11.841 20.328h-5.105c-0.217 0-0.4-0.161-0.427-0.377-0.26-2.056 0.941-4.1 3.135-5.339 2.005-1.287 1.995-1.783 1.967-3.104l-0.001-0.028c0-0.8-0.643-1.443-1.434-1.443h-1.426c-0.79 0-1.434 0.643-1.434 1.433 0 0.238-0.192 0.431-0.43 0.431s-0.431-0.193-0.431-0.431c0-1.265 1.029-2.295 2.295-2.295h1.427c1.266 0 2.295 1.030 2.295 2.295l0.001 0.019c0.033 1.555-0.054 2.368-2.373 3.854-0.007 0.005-0.014 0.008-0.022 0.013-1.779 1-2.781 2.516-2.743 4.11h4.707c0.238 0 0.43 0.193 0.43 0.431s-0.193 0.43-0.431 0.43z"></path>
<path d="M18.135 20.24h-1.583c-1.377 0-2.498-1.12-2.498-2.498v-6.068c0-1.378 1.121-2.498 2.498-2.498h1.583c1.377 0 2.498 1.121 2.498 2.498v6.068c0 1.378-1.121 2.498-2.498 2.498zM16.552 10.037c-0.902 0-1.636 0.734-1.636 1.637v6.068c0 0.903 0.734 1.637 1.636 1.637h1.583c0.903 0 1.637-0.734 1.637-1.637v-6.068c0-0.903-0.734-1.637-1.637-1.637h-1.583z"></path>
<path d="M30.966 24.901h-29.931c-0.599 0-1.086-0.487-1.086-1.086v-17.871c0-0.599 0.487-1.086 1.086-1.086h29.931c0.598 0 1.085 0.487 1.085 1.086v17.871c-0 0.599-0.487 1.086-1.085 1.086zM1.035 5.721c-0.122 0-0.225 0.103-0.225 0.224v17.871c0 0.122 0.103 0.224 0.225 0.224h29.931c0.121 0 0.223-0.102 0.223-0.224v-17.871c0-0.121-0.102-0.224-0.223-0.224h-29.931z"></path>
<path d="M7.156 27.141h-3.56c-0.238 0-0.431-0.192-0.431-0.43s0.193-0.431 0.431-0.431h3.56c0.238 0 0.431 0.193 0.431 0.431s-0.192 0.43-0.431 0.43z"></path>
<path d="M28.62 27.141h-3.561c-0.238 0-0.431-0.192-0.431-0.43s0.193-0.431 0.431-0.431h3.561c0.238 0 0.431 0.193 0.431 0.431s-0.193 0.43-0.431 0.43z"></path>
</svg>
